{
    "status": "success",
    "data": {
        "current_page": 1,
        "reels": [
            {
                "id": 36,
                "user_id": 28056,
                "title": "countdown",
                "caption": "timer 100",
                "video_path": "1757307250_68be617263c9b.mp4",
                "thumbnail_path": "",
                "processed_video_path": "",
                "duration": 0,
                "views_count": 0,
                "likes_count": 2,
                "comments_count": 2,
                "reports_count": 2,
                "is_processed": false,
                "is_hidden": false,
                "created_at": 1757307250,
                "updated_at": 1757307250,
                "deleted_at": "",
                "video_url": "http://127.0.0.1:8000/store/reels/videos/1757307250_68be617263c9b.mp4",
                "thumbnail_url": "",
                "processed_video_url": "",
                "user": {
                    "id": 28056,
                    "name": "",
                    "avatar": ""
                }
            },
            {
                "id": 35,
                "user_id": 28051,
                "title": "dubai 2",
                "caption": "dubai india 2",
                "video_path": "1757175697_68bc5f9191079.mp4",
                "thumbnail_path": "",
                "processed_video_path": "",
                "duration": 0,
                "views_count": 0,
                "likes_count": 3,
                "comments_count": 1,
                "reports_count": 2,
                "is_processed": false,
                "is_hidden": false,
                "created_at": 1757175697,
                "updated_at": 1757175697,
                "deleted_at": "",
                "video_url": "http://127.0.0.1:8000/store/reels/videos/1757175697_68bc5f9191079.mp4",
                "thumbnail_url": "",
                "processed_video_url": "",
                "user": {
                    "id": 28051,
                    "name": "",
                    "avatar": ""
                }
            }
           
        ],
        "first_page_url": "http://127.0.0.1:8000/api/development/reels?page=1",
        "from": 1,
        "last_page": 3,
        "last_page_url": "http://127.0.0.1:8000/api/development/reels?page=3",
        "links": [
            {
                "url": "",
                "label": "&laquo; Previous",
                "active": false
            },
            {
                "url": "http://127.0.0.1:8000/api/development/reels?page=1",
                "label": "1",
                "active": true
            },
            {
                "url": "http://127.0.0.1:8000/api/development/reels?page=2",
                "label": "2",
                "active": false
            },
            {
                "url": "http://127.0.0.1:8000/api/development/reels?page=3",
                "label": "3",
                "active": false
            },
            {
                "url": "http://127.0.0.1:8000/api/development/reels?page=2",
                "label": "Next &raquo;",
                "active": false
            }
        ],
        "next_page_url": "http://127.0.0.1:8000/api/development/reels?page=2",
        "path": "http://127.0.0.1:8000/api/development/reels",
        "per_page": 10,
        "prev_page_url": "",
        "to": 10,
        "total": 26
    }
}